Intro to Machine Learning
…
Did it work?

Checking the tuning results.

lr_perf <- lr_res %>% collect_metrics() 

lr_perf

# A tibble: 30 × 7
    penalty .metric .estimator  mean     n std_err .config              
      <dbl> <chr>   <chr>      <dbl> <int>   <dbl> <chr>                
 1 0.0001   roc_auc binary     0.869     3 0.00678 Preprocessor1_Model01
 2 0.000127 roc_auc binary     0.870     3 0.00683 Preprocessor1_Model02
 3 0.000161 roc_auc binary     0.870     3 0.00685 Preprocessor1_Model03
 4 0.000204 roc_auc binary     0.871     3 0.00686 Preprocessor1_Model04
 5 0.000259 roc_auc binary     0.871     3 0.00686 Preprocessor1_Model05
 6 0.000329 roc_auc binary     0.872     3 0.00685 Preprocessor1_Model06
 7 0.000418 roc_auc binary     0.872     3 0.00683 Preprocessor1_Model07
 8 0.000530 roc_auc binary     0.873     3 0.00679 Preprocessor1_Model08
 9 0.000672 roc_auc binary     0.873     3 0.00681 Preprocessor1_Model09
10 0.000853 roc_auc binary     0.873     3 0.00686 Preprocessor1_Model10
# ℹ 20 more rows
…
